{
    "DESCRIPTION": {
        "model_code": "b903_VnmBin_Ds_C10",
        "notes": [
            "AGi model code : b015_2As06--_Si_D1_C10",
            "HCM model code : b012_1An----_Sn_Di_C10",
            "QNg model code : b012_1An----_Sn_Di_C10",            
            
            "Shared detection rates : yes",
            "Titre cut-off          : 10"
        ]
    },
    "POPULATIONS": [
        {
            "id": "AGi",
            "titre_distributions": {
                "type": "categorical",
                "probability_matrix": [
                    "Shared_Prob_NegTitre_GivenE0", "Zero",
                    "Shared_Prob_NegTitre_GivenE1", "Zero",
                    "Shared_Prob_NegTitre_GivenE2", "Zero"
                ],
                "titre_cutoffs": [
                    "TitreCutoff_10", "TitreCutoff_10"
                ]
            },
            "attack_frequencies": [
                "AGi_AtkFreq_1", "AGi_AtkFreq_2"
            ],
            "attack_scaling_factors": [],
            "age_group_cut_offs": [
                "AGi_AgeCutOff_06"
            ]
        },

        {
            "id": "HCM",
            "titre_distributions": {
                "type": "categorical",
                "probability_matrix": [
                    "Shared_Prob_NegTitre_GivenE0", "Zero",
                    "Shared_Prob_NegTitre_GivenE1", "Zero",
                    "Shared_Prob_NegTitre_GivenE2", "Zero"
                ],
                "titre_cutoffs": [
                    "TitreCutoff_10", "TitreCutoff_10"
                ]
            },
            "attack_frequencies": [
                "HCM_AtkFreq_1"
            ],
            "attack_scaling_factors": [],
            "age_group_cut_offs": []
        },
        
        {
            "id": "QNg",
            "titre_distributions": {
                "type": "categorical",
                "probability_matrix": [
                    "Shared_Prob_NegTitre_GivenE0", "Zero",
                    "Shared_Prob_NegTitre_GivenE1", "Zero",
                    "Shared_Prob_NegTitre_GivenE2", "Zero"
                ],
                "titre_cutoffs": [
                    "TitreCutoff_10", "TitreCutoff_10"
                ]
            },
            "attack_frequencies": [
                "QNg_AtkFreq_1"
            ],
            "attack_scaling_factors": [],
            "age_group_cut_offs": []
        }

    ]
}